Washington data — wa_data • prioritizrdata
…
# preview attributes of species
print(wa_attr)
#> # A tibble: 396 × 6
#>    feature                  binomial family order extinction_prob interest_score
#>    <chr>                    <chr>    <chr>  <chr>           <dbl>          <dbl>
#>  1 Recurvirostra americana… Recurvi… Recur… Char…          0.0009              0
#>  2 Botaurus lentiginosus (… Botauru… Ardei… Pele…          0.0009              1
#>  3 Botaurus lentiginosus (… Botauru… Ardei… Pele…          0.0009              1
#>  4 Corvus brachyrhynchos (… Corvus … Corvi… Pass…          0.0009              0
#>  5 Corvus brachyrhynchos (… Corvus … Corvi… Pass…          0.0009              0
#>  6 Cinclus mexicanus (full) Cinclus… Cincl… Pass…          0.0009              0
#>  7 Spinus tristis (breedin… Spinus … Fring… Pass…          0.0009              0
#>  8 Spinus tristis (nonbree… Spinus … Fring… Pass…          0.0009              0
#>  9 Falco sparverius (breed… Falco s… Falco… Falc…          0.0009           5281
#> 10 Falco sparverius (nonbr… Falco s… Falco… Falc…          0.0009           5281
#> # ℹ 386 more rows
…
